%YAML 1.1
%TAG !u! tag:unity3d.com,2011:
--- !u!74 &7400000
AnimationClip:
  m_ObjectHideFlags: 0
  m_CorrespondingSourceObject: {fileID: 0}
  m_PrefabInstance: {fileID: 0}
  m_PrefabAsset: {fileID: 0}
  m_Name: PowerUpShield
  serializedVersion: 6
  m_Legacy: 0
  m_Compressed: 0
  m_UseHighQualityCurve: 1
  m_RotationCurves: []
  m_CompressedRotationCurves: []
  m_EulerCurves: []
  m_PositionCurves: []
  m_ScaleCurves: []
  m_FloatCurves: []
  m_PPtrCurves:
  - curve:
    - time: 0
      value: {fileID: 21300000, guid: c7f74cc99260b7d41af2c4b2296475cb, type: 3}
    - time: 0.1
      value: {fileID: 21300000, guid: ed12d1ced90666e4d8cfd91ac7383ab0, type: 3}
    - time: 0.2
      value: {fileID: 21300000, guid: aa805e1eebf982c478c9721e086ae61c, type: 3}
    - time: 0.3
      value: {fileID: 21300000, guid: 74871596fcef99745a2cc7b0a8c5bdbc, type: 3}
    - time: 0.4
      value: {fileID: 21300000, guid: 51606a0a29e80a14484e5dd8ee593c8d, type: 3}
    - time: 0.5
      value: {fileID: 21300000, guid: e003a3123c8db964e8143217379d92ac, type: 3}
    - time: 0.6
      value: {fileID: 21300000, guid: b8695deb8a8c6614f85681894b2c46a0, type: 3}
    - time: 0.7
      value: {fileID: 21300000, guid: 376667808d516f24391ae7ba3e7382ad, type: 3}
    - time: 0.8
      value: {fileID: 21300000, guid: ee4a34a8c878b9e45b79c46a07746b5f, type: 3}
    - time: 0.9
      value: {fileID: 21300000, guid: 7518f443aff7bff45ab7d7486decf021, type: 3}
    - time: 1
      value: {fileID: 21300000, guid: a0657ae5112ebdd4fa04b2576bb72b7f, type: 3}
    attribute: m_Sprite
    path: 
    classID: 212
    script: {fileID: 0}
  m_SampleRate: 10
  m_WrapMode: 0
  m_Bounds:
    m_Center: {x: 0, y: 0, z: 0}
    m_Extent: {x: 0, y: 0, z: 0}
  m_ClipBindingConstant:
    genericBindings:
    - serializedVersion: 2
      path: 0
      attribute: 0
      script: {fileID: 0}
      typeID: 212
      customType: 23
      isPPtrCurve: 1
    pptrCurveMapping:
    - {fileID: 21300000, guid: c7f74cc99260b7d41af2c4b2296475cb, type: 3}
    - {fileID: 21300000, guid: ed12d1ced90666e4d8cfd91ac7383ab0, type: 3}
    - {fileID: 21300000, guid: aa805e1eebf982c478c9721e086ae61c, type: 3}
    - {fileID: 21300000, guid: 74871596fcef99745a2cc7b0a8c5bdbc, type: 3}
    - {fileID: 21300000, guid: 51606a0a29e80a14484e5dd8ee593c8d, type: 3}
    - {fileID: 21300000, guid: e003a3123c8db964e8143217379d92ac, type: 3}
    - {fileID: 21300000, guid: b8695deb8a8c6614f85681894b2c46a0, type: 3}
    - {fileID: 21300000, guid: 376667808d516f24391ae7ba3e7382ad, type: 3}
    - {fileID: 21300000, guid: ee4a34a8c878b9e45b79c46a07746b5f, type: 3}
    - {fileID: 21300000, guid: 7518f443aff7bff45ab7d7486decf021, type: 3}
    - {fileID: 21300000, guid: a0657ae5112ebdd4fa04b2576bb72b7f, type: 3}
  m_AnimationClipSettings:
    serializedVersion: 2
    m_AdditiveReferencePoseClip: {fileID: 0}
    m_AdditiveReferencePoseTime: 0
    m_StartTime: 0
    m_StopTime: 1.1
    m_OrientationOffsetY: 0
    m_Level: 0
    m_CycleOffset: 0
    m_HasAdditiveReferencePose: 0
    m_LoopTime: 1
    m_LoopBlend: 0
    m_LoopBlendOrientation: 0
    m_LoopBlendPositionY: 0
    m_LoopBlendPositionXZ: 0
    m_KeepOriginalOrientation: 0
    m_KeepOriginalPositionY: 1
    m_KeepOriginalPositionXZ: 0
    m_HeightFromFeet: 0
    m_Mirror: 0
  m_EditorCurves: []
  m_EulerEditorCurves: []
  m_HasGenericRootTransform: 0
  m_HasMotionFloatCurves: 0
  m_Events: []
