%YAML 1.1
%TAG !u! tag:unity3d.com,2011:
--- !u!1045 &1
EditorBuildSettings:
  m_ObjectHideFlags: 0
  serializedVersion: 2
  m_Scenes:
  - enabled: 1
    path: Assets/Scenes/MainMenu.unity
    guid: 94dae4e2e24259a47b1df1ec51517da6
  - enabled: 1
    path: Assets/Scenes/Level1.unity
    guid: 2cda990e2423bbf4892e6590ba056729
  m_configObjects:
    com.unity.input.settings: {fileID: 11400000, guid: 248c0cd31a1e77f49ab9633cf4c03cda,
      type: 2}
